Unsupervised Machine Learning -
…
set.seed(123)   
# Generate synthetic data  
dates <- seq.Date(from = as.Date("2023-01-01"),
                  by = "month", length.out = 24)
yields <- rnorm(24, mean = 50, sd = 10)  # Normal crop yields 
yields[c(5, 12, 18)] <- yields[c(5, 12, 18)] + c(20, -15, 25)  # 

Adding anomalies

# Create a data frame  
crop_data <- tibble(date = dates, yield = yields) 
# Print the dataset  
print(crop_data)

# A tibble: 24 × 2
   date       yield
   <date>     <dbl>
 1 2023-01-01  44.4
 2 2023-02-01  47.7
 3 2023-03-01  65.6
 4 2023-04-01  50.7
 5 2023-05-01  71.3
 6 2023-06-01  67.2
 7 2023-07-01  54.6
 8 2023-08-01  37.3
 9 2023-09-01  43.1
10 2023-10-01  45.5
# ℹ 14 more rows
…
